Copyright 1986-2018 Xilinx, Inc. All Rights Reserved.
-----------------------------------------------------------------------------------------------
| Tool Version : Vivado v.2018.2 (win64) Build 2258646 Thu Jun 14 20:03:12 MDT 2018
| Date         : Thu Jun 20 10:36:05 2019
| Host         : DESKTOP-GQCFB6S running 64-bit major release  (build 9200)
| Command      : report_control_sets -verbose -file AesCryptoCore_v1_0_control_sets_placed.rpt
| Design       : AesCryptoCore_v1_0
| Device       : xc7z020
-----------------------------------------------------------------------------------------------

Control Set Information

Table of Contents
-----------------
1. Summary
2. Histogram
3. Flip-Flop Distribution
4. Detailed Control Set Information

1. Summary
----------

+----------------------------------------------------------+-------+
|                          Status                          | Count |
+----------------------------------------------------------+-------+
| Number of unique control sets                            |    59 |
| Unused register locations in slices containing registers |    10 |
+----------------------------------------------------------+-------+


2. Histogram
------------

+--------+--------------+
| Fanout | Control Sets |
+--------+--------------+
|      8 |            2 |
|    16+ |           57 |
+--------+--------------+


3. Flip-Flop Distribution
-------------------------

+--------------+-----------------------+------------------------+-----------------+--------------+
| Clock Enable | Synchronous Set/Reset | Asynchronous Set/Reset | Total Registers | Total Slices |
+--------------+-----------------------+------------------------+-----------------+--------------+
| No           | No                    | No                     |               0 |            0 |
| No           | No                    | Yes                    |               0 |            0 |
| No           | Yes                   | No                     |              20 |            6 |
| Yes          | No                    | No                     |             576 |           81 |
| Yes          | No                    | Yes                    |               0 |            0 |
| Yes          | Yes                   | No                     |            4018 |          851 |
+--------------+-----------------------+------------------------+-----------------+--------------+


4. Detailed Control Set Information
-----------------------------------

+-------------------------+---------------------------------------------------------------------+-------------------------------------------------------+------------------+----------------+
|       Clock Signal      |                            Enable Signal                            |                    Set/Reset Signal                   | Slice Load Count | Bel Load Count |
+-------------------------+---------------------------------------------------------------------+-------------------------------------------------------+------------------+----------------+
|  s00_axi_aclk_IBUF_BUFG | AesCryptoCore_v1_0_S00_AXI_inst/axi_awready0                        | AesCryptoCore_v1_0_S00_AXI_inst/UIP/reset_pos         |                1 |              8 |
|  s00_axi_aclk_IBUF_BUFG | AesCryptoCore_v1_0_S00_AXI_inst/axi_arready0                        | AesCryptoCore_v1_0_S00_AXI_inst/UIP/reset_pos         |                1 |              8 |
|  s00_axi_aclk_IBUF_BUFG | AesCryptoCore_v1_0_S00_AXI_inst/v2_memory[7][23]_i_1_n_0            | AesCryptoCore_v1_0_S00_AXI_inst/UIP/reset_pos         |                1 |             16 |
|  s00_axi_aclk_IBUF_BUFG | AesCryptoCore_v1_0_S00_AXI_inst/v2_memory[4][23]_i_1_n_0            | AesCryptoCore_v1_0_S00_AXI_inst/UIP/reset_pos         |                1 |             16 |
|  s00_axi_aclk_IBUF_BUFG | AesCryptoCore_v1_0_S00_AXI_inst/v2_memory[2][23]_i_1_n_0            | AesCryptoCore_v1_0_S00_AXI_inst/UIP/reset_pos         |                1 |             16 |
|  s00_axi_aclk_IBUF_BUFG | AesCryptoCore_v1_0_S00_AXI_inst/v2_memory[6][23]_i_1_n_0            | AesCryptoCore_v1_0_S00_AXI_inst/UIP/reset_pos         |                2 |             16 |
|  s00_axi_aclk_IBUF_BUFG | AesCryptoCore_v1_0_S00_AXI_inst/v2_memory[7][7]_i_1_n_0             | AesCryptoCore_v1_0_S00_AXI_inst/UIP/reset_pos         |                1 |             16 |
|  s00_axi_aclk_IBUF_BUFG | AesCryptoCore_v1_0_S00_AXI_inst/v2_memory[3][7]_i_1_n_0             | AesCryptoCore_v1_0_S00_AXI_inst/UIP/reset_pos         |                1 |             16 |
|  s00_axi_aclk_IBUF_BUFG | AesCryptoCore_v1_0_S00_AXI_inst/v2_memory[8][15]_i_1_n_0            | AesCryptoCore_v1_0_S00_AXI_inst/UIP/reset_pos         |                2 |             16 |
|  s00_axi_aclk_IBUF_BUFG | AesCryptoCore_v1_0_S00_AXI_inst/v2_memory[9][31]_i_1_n_0            | AesCryptoCore_v1_0_S00_AXI_inst/UIP/reset_pos         |                1 |             16 |
|  s00_axi_aclk_IBUF_BUFG | AesCryptoCore_v1_0_S00_AXI_inst/v2_memory[14][7]_i_1_n_0            |                                                       |                2 |             16 |
|  s00_axi_aclk_IBUF_BUFG | AesCryptoCore_v1_0_S00_AXI_inst/v2_memory[4][7]_i_1_n_0             | AesCryptoCore_v1_0_S00_AXI_inst/UIP/reset_pos         |                2 |             16 |
|  s00_axi_aclk_IBUF_BUFG | AesCryptoCore_v1_0_S00_AXI_inst/v2_memory[9][23]_i_1_n_0            | AesCryptoCore_v1_0_S00_AXI_inst/UIP/reset_pos         |                2 |             16 |
|  s00_axi_aclk_IBUF_BUFG | AesCryptoCore_v1_0_S00_AXI_inst/v2_memory[9][15]_i_1_n_0            | AesCryptoCore_v1_0_S00_AXI_inst/UIP/reset_pos         |                2 |             16 |
|  s00_axi_aclk_IBUF_BUFG | AesCryptoCore_v1_0_S00_AXI_inst/v2_memory[5][15]_i_1_n_0            | AesCryptoCore_v1_0_S00_AXI_inst/UIP/reset_pos         |                2 |             16 |
|  s00_axi_aclk_IBUF_BUFG | AesCryptoCore_v1_0_S00_AXI_inst/v2_memory[5][23]_i_1_n_0            | AesCryptoCore_v1_0_S00_AXI_inst/UIP/reset_pos         |                2 |             16 |
|  s00_axi_aclk_IBUF_BUFG | AesCryptoCore_v1_0_S00_AXI_inst/v2_memory[5][31]_i_1_n_0            | AesCryptoCore_v1_0_S00_AXI_inst/UIP/reset_pos         |                2 |             16 |
|  s00_axi_aclk_IBUF_BUFG | AesCryptoCore_v1_0_S00_AXI_inst/v2_memory[5][7]_i_1_n_0             | AesCryptoCore_v1_0_S00_AXI_inst/UIP/reset_pos         |                1 |             16 |
|  s00_axi_aclk_IBUF_BUFG | AesCryptoCore_v1_0_S00_AXI_inst/v2_memory[0][31]_i_1_n_0            | AesCryptoCore_v1_0_S00_AXI_inst/UIP/reset_pos         |                2 |             16 |
|  s00_axi_aclk_IBUF_BUFG | AesCryptoCore_v1_0_S00_AXI_inst/v2_memory[14][15]_i_1_n_0           |                                                       |                1 |             16 |
|  s00_axi_aclk_IBUF_BUFG | AesCryptoCore_v1_0_S00_AXI_inst/v2_memory[14][23]_i_1_n_0           |                                                       |                1 |             16 |
|  s00_axi_aclk_IBUF_BUFG | AesCryptoCore_v1_0_S00_AXI_inst/v2_memory[14][31]_i_1_n_0           |                                                       |                1 |             16 |
|  s00_axi_aclk_IBUF_BUFG | AesCryptoCore_v1_0_S00_AXI_inst/v2_memory[8][7]_i_1_n_0             | AesCryptoCore_v1_0_S00_AXI_inst/UIP/reset_pos         |                2 |             16 |
|  s00_axi_aclk_IBUF_BUFG | AesCryptoCore_v1_0_S00_AXI_inst/v2_memory[0][15]_i_1_n_0            | AesCryptoCore_v1_0_S00_AXI_inst/UIP/reset_pos         |                2 |             16 |
|  s00_axi_aclk_IBUF_BUFG | AesCryptoCore_v1_0_S00_AXI_inst/v2_memory[0][23]_i_1_n_0            | AesCryptoCore_v1_0_S00_AXI_inst/UIP/reset_pos         |                1 |             16 |
|  s00_axi_aclk_IBUF_BUFG | AesCryptoCore_v1_0_S00_AXI_inst/v2_memory[2][31]_i_1_n_0            | AesCryptoCore_v1_0_S00_AXI_inst/UIP/reset_pos         |                2 |             16 |
|  s00_axi_aclk_IBUF_BUFG | AesCryptoCore_v1_0_S00_AXI_inst/v2_memory[7][15]_i_1_n_0            | AesCryptoCore_v1_0_S00_AXI_inst/UIP/reset_pos         |                2 |             16 |
|  s00_axi_aclk_IBUF_BUFG | AesCryptoCore_v1_0_S00_AXI_inst/v2_memory[9][7]_i_1_n_0             | AesCryptoCore_v1_0_S00_AXI_inst/UIP/reset_pos         |                2 |             16 |
|  s00_axi_aclk_IBUF_BUFG | AesCryptoCore_v1_0_S00_AXI_inst/v2_memory[4][15]_i_1_n_0            | AesCryptoCore_v1_0_S00_AXI_inst/UIP/reset_pos         |                1 |             16 |
|  s00_axi_aclk_IBUF_BUFG | AesCryptoCore_v1_0_S00_AXI_inst/v2_memory[7][31]_i_1_n_0            | AesCryptoCore_v1_0_S00_AXI_inst/UIP/reset_pos         |                2 |             16 |
|  s00_axi_aclk_IBUF_BUFG | AesCryptoCore_v1_0_S00_AXI_inst/v2_memory[3][23]_i_1_n_0            | AesCryptoCore_v1_0_S00_AXI_inst/UIP/reset_pos         |                1 |             16 |
|  s00_axi_aclk_IBUF_BUFG | AesCryptoCore_v1_0_S00_AXI_inst/v2_memory[6][7]_i_1_n_0             | AesCryptoCore_v1_0_S00_AXI_inst/UIP/reset_pos         |                2 |             16 |
|  s00_axi_aclk_IBUF_BUFG | AesCryptoCore_v1_0_S00_AXI_inst/v2_memory[8][31]_i_1_n_0            | AesCryptoCore_v1_0_S00_AXI_inst/UIP/reset_pos         |                2 |             16 |
|  s00_axi_aclk_IBUF_BUFG | AesCryptoCore_v1_0_S00_AXI_inst/v2_memory[2][15]_i_1_n_0            | AesCryptoCore_v1_0_S00_AXI_inst/UIP/reset_pos         |                1 |             16 |
|  s00_axi_aclk_IBUF_BUFG | AesCryptoCore_v1_0_S00_AXI_inst/v2_memory[6][15]_i_1_n_0            | AesCryptoCore_v1_0_S00_AXI_inst/UIP/reset_pos         |                2 |             16 |
|  s00_axi_aclk_IBUF_BUFG | AesCryptoCore_v1_0_S00_AXI_inst/v2_memory[2][7]_i_1_n_0             | AesCryptoCore_v1_0_S00_AXI_inst/UIP/reset_pos         |                2 |             16 |
|  s00_axi_aclk_IBUF_BUFG | AesCryptoCore_v1_0_S00_AXI_inst/v2_memory[3][31]_i_1_n_0            | AesCryptoCore_v1_0_S00_AXI_inst/UIP/reset_pos         |                1 |             16 |
|  s00_axi_aclk_IBUF_BUFG | AesCryptoCore_v1_0_S00_AXI_inst/v2_memory[4][31]_i_1_n_0            | AesCryptoCore_v1_0_S00_AXI_inst/UIP/reset_pos         |                2 |             16 |
|  s00_axi_aclk_IBUF_BUFG | AesCryptoCore_v1_0_S00_AXI_inst/v2_memory[6][31]_i_1_n_0            | AesCryptoCore_v1_0_S00_AXI_inst/UIP/reset_pos         |                2 |             16 |
|  s00_axi_aclk_IBUF_BUFG | AesCryptoCore_v1_0_S00_AXI_inst/v2_memory[3][15]_i_1_n_0            | AesCryptoCore_v1_0_S00_AXI_inst/UIP/reset_pos         |                1 |             16 |
|  s00_axi_aclk_IBUF_BUFG | AesCryptoCore_v1_0_S00_AXI_inst/v2_memory[8][23]_i_1_n_0            | AesCryptoCore_v1_0_S00_AXI_inst/UIP/reset_pos         |                2 |             16 |
|  s00_axi_aclk_IBUF_BUFG |                                                                     | AesCryptoCore_v1_0_S00_AXI_inst/UIP/reset_pos         |                6 |             20 |
|  s00_axi_aclk_IBUF_BUFG | AesCryptoCore_v1_0_S00_AXI_inst/v2_memory[0][7]_i_1_n_0             | AesCryptoCore_v1_0_S00_AXI_inst/UIP/reset_pos         |                3 |             28 |
|  s00_axi_aclk_IBUF_BUFG | AesCryptoCore_v1_0_S00_AXI_inst/slv_reg_rden                        | AesCryptoCore_v1_0_S00_AXI_inst/axi_rdata[31]_i_1_n_0 |               32 |             64 |
|  s00_axi_aclk_IBUF_BUFG | AesCryptoCore_v1_0_S00_AXI_inst/UIP/round_key[127]_i_1_n_0          | AesCryptoCore_v1_0_S00_AXI_inst/UIP/reset_pos         |               72 |            256 |
|  s00_axi_aclk_IBUF_BUFG | AesCryptoCore_v1_0_S00_AXI_inst/UIP/w_extended_key[2][127]_i_1_n_0  | AesCryptoCore_v1_0_S00_AXI_inst/UIP/reset_pos         |               47 |            256 |
|  s00_axi_aclk_IBUF_BUFG | AesCryptoCore_v1_0_S00_AXI_inst/UIP/w_extended_key                  | AesCryptoCore_v1_0_S00_AXI_inst/UIP/reset_pos         |               44 |            256 |
|  s00_axi_aclk_IBUF_BUFG | AesCryptoCore_v1_0_S00_AXI_inst/UIP/stored_key[127]_i_1_n_0         |                                                       |               30 |            256 |
|  s00_axi_aclk_IBUF_BUFG | AesCryptoCore_v1_0_S00_AXI_inst/UIP/text_out[127]_i_1_n_0           |                                                       |               46 |            256 |
|  s00_axi_aclk_IBUF_BUFG | AesCryptoCore_v1_0_S00_AXI_inst/UIP/w_extended_key[11][127]_i_1_n_0 | AesCryptoCore_v1_0_S00_AXI_inst/UIP/reset_pos         |               40 |            256 |
|  s00_axi_aclk_IBUF_BUFG | AesCryptoCore_v1_0_S00_AXI_inst/UIP/w_extended_key[3][127]_i_1_n_0  | AesCryptoCore_v1_0_S00_AXI_inst/UIP/reset_pos         |               55 |            256 |
|  s00_axi_aclk_IBUF_BUFG | AesCryptoCore_v1_0_S00_AXI_inst/UIP/w_extended_key[4][127]_i_1_n_0  | AesCryptoCore_v1_0_S00_AXI_inst/UIP/reset_pos         |               49 |            256 |
|  s00_axi_aclk_IBUF_BUFG | AesCryptoCore_v1_0_S00_AXI_inst/UIP/w_extended_key[6][127]_i_1_n_0  | AesCryptoCore_v1_0_S00_AXI_inst/UIP/reset_pos         |               58 |            256 |
|  s00_axi_aclk_IBUF_BUFG | AesCryptoCore_v1_0_S00_AXI_inst/UIP/w_extended_key[7][127]_i_1_n_0  | AesCryptoCore_v1_0_S00_AXI_inst/UIP/reset_pos         |               58 |            256 |
|  s00_axi_aclk_IBUF_BUFG | AesCryptoCore_v1_0_S00_AXI_inst/UIP/w_extended_key[8][127]_i_1_n_0  | AesCryptoCore_v1_0_S00_AXI_inst/UIP/reset_pos         |               65 |            256 |
|  s00_axi_aclk_IBUF_BUFG | AesCryptoCore_v1_0_S00_AXI_inst/UIP/w_extended_key[9][127]_i_1_n_0  | AesCryptoCore_v1_0_S00_AXI_inst/UIP/reset_pos         |               91 |            256 |
|  s00_axi_aclk_IBUF_BUFG | AesCryptoCore_v1_0_S00_AXI_inst/UIP/w_extended_key[5][127]_i_1_n_0  | AesCryptoCore_v1_0_S00_AXI_inst/UIP/reset_pos         |               48 |            256 |
|  s00_axi_aclk_IBUF_BUFG | AesCryptoCore_v1_0_S00_AXI_inst/UIP/w_extended_key[10][127]_i_1_n_0 | AesCryptoCore_v1_0_S00_AXI_inst/UIP/reset_pos         |               48 |            256 |
|  s00_axi_aclk_IBUF_BUFG | AesCryptoCore_v1_0_S00_AXI_inst/UIP/round_counter[3]_i_1_n_0        | AesCryptoCore_v1_0_S00_AXI_inst/UIP/reset_pos         |               82 |            278 |
+-------------------------+---------------------------------------------------------------------+-------------------------------------------------------+------------------+----------------+


